1. Summary
Meeting title	Python Training [week 6] - [week 13]
Attended participants	19
Start time	11/10/22, 4:56:08 PM
End time	11/10/22, 6:26:01 PM
Meeting duration	1h 29m 53s
Average attendance time	1h 12m 49s

2. Participants
Name	First join	Last leave	In-meeting duration	Email	Participant ID (UPN)	Role
Rodrigo Morales Rivas	11/10/22, 4:56:17 PM	11/10/22, 6:10:40 PM	1h 14m 22s	Rodrigo.Morales@jala.university	Rodrigo.Morales@jala.university	Presenter
Miguel Pozo Morales	11/10/22, 4:56:27 PM	11/10/22, 6:10:37 PM	1h 14m 10s	Miguel.Pozo@jala.university	Miguel.Pozo@jala.university	Presenter
Renan Boaventura	11/10/22, 4:56:29 PM	11/10/22, 6:10:40 PM	1h 14m 10s	Renan.Boaventura@jala.university	Renan.Boaventura@jala.university	Presenter
Sebastian Arbelaez Meneses	11/10/22, 4:56:31 PM	11/10/22, 6:19:21 PM	1h 22m 50s	Sebastian.Arbelaez@jala.university	Sebastian.Arbelaez@jala.university	Presenter
Ivan Gonzalez de la Torre	11/10/22, 4:57:31 PM	11/10/22, 6:10:33 PM	1h 13m 2s	Ivan.Gonzalez@jala.university	Ivan.Gonzalez@jala.university	Presenter
Kevin Butvilofsky	11/10/22, 4:58:34 PM	11/10/22, 6:10:35 PM	1h 12m	Kevin.Butvilofsky@jala.university	Kevin.Butvilofsky@jala.university	Presenter
Israel Zurita Sanchez	11/10/22, 4:58:59 PM	11/10/22, 6:10:31 PM	1h 11m 32s	Israel.Zurita@jala.university	Israel.Zurita@jala.university	Presenter
Andre Arroyo Hinojosa	11/10/22, 4:58:59 PM	11/10/22, 6:10:38 PM	1h 11m 39s	Andre.Arroyo@jala.university	Andre.Arroyo@jala.university	Presenter
Diego Alarcon Inturias	11/10/22, 4:59:15 PM	11/10/22, 6:10:35 PM	1h 11m 19s	Diego.Alarcon@jala.university	Diego.Alarcon@jala.university	Presenter
Diego Quisbert Gutierrez	11/10/22, 4:59:23 PM	11/10/22, 6:10:32 PM	1h 11m 8s	Diego.Quisbert@jala.university	Diego.Quisbert@jala.university	Presenter
Jose Mendoza Antonio	11/10/22, 4:59:24 PM	11/10/22, 6:10:44 PM	1h 11m 20s	Jose.Mendoza@jala.university	Jose.Mendoza@jala.university	Presenter
Maria Marquina Guevara	11/10/22, 4:59:29 PM	11/10/22, 6:10:37 PM	1h 11m 8s	Maria.Marquina@jala.university	Maria.Marquina@jala.university	Organizer
Nelson Delgado Colque	11/10/22, 4:59:58 PM	11/10/22, 6:10:36 PM	1h 10m 38s	Nelson.Delgado@jala.university	Nelson.Delgado@jala.university	Presenter
Alejandra Maldonado	11/10/22, 5:00:00 PM	11/10/22, 6:10:51 PM	1h 10m 50s	Alejandra.Maldonado@jala.university	Alejandra.Maldonado@jala.university	Presenter
Miguel Paricahua Lopez	11/10/22, 5:00:25 PM	11/10/22, 6:10:37 PM	1h 10m 12s	Miguel.Paricahua@jala.university	Miguel.Paricahua@jala.university	Presenter
Miguel Gemio Quispe	11/10/22, 5:00:29 PM	11/10/22, 6:26:01 PM	1h 25m 32s	Miguel.Gemio@jala.university	Miguel.Gemio@jala.university	Presenter
Brayan Vasquez Rojas	11/10/22, 5:00:37 PM	11/10/22, 6:10:45 PM	1h 10m 8s	Brayan.Vasquez@jala.university	Brayan.Vasquez@jala.university	Presenter
Dayana Hernandez Aquize	11/10/22, 5:01:44 PM	11/10/22, 6:10:42 PM	1h 8m 57s	Dayana.Hernandez@jala.university	Dayana.Hernandez@jala.university	Presenter
Alex Perez Castillo	11/10/22, 5:01:58 PM	11/10/22, 6:10:39 PM	1h 8m 41s	Alex.Perez@jala.university	Alex.Perez@jala.university	Presenter

3. In-Meeting activities
Name	Join time	Leave time	Duration	Email	Role
Rodrigo Morales Rivas	11/10/22, 4:56:17 PM	11/10/22, 6:10:40 PM	1h 14m 22s	Rodrigo.Morales@jala.university	Presenter
Miguel Pozo Morales	11/10/22, 4:56:27 PM	11/10/22, 6:10:37 PM	1h 14m 10s	Miguel.Pozo@jala.university	Presenter
Renan Boaventura	11/10/22, 4:56:29 PM	11/10/22, 6:10:40 PM	1h 14m 10s	Renan.Boaventura@jala.university	Presenter
Sebastian Arbelaez Meneses	11/10/22, 4:56:31 PM	11/10/22, 6:19:21 PM	1h 22m 50s	Sebastian.Arbelaez@jala.university	Presenter
Ivan Gonzalez de la Torre	11/10/22, 4:57:31 PM	11/10/22, 6:10:33 PM	1h 13m 2s	Ivan.Gonzalez@jala.university	Presenter
Kevin Butvilofsky	11/10/22, 4:58:34 PM	11/10/22, 6:10:35 PM	1h 12m	Kevin.Butvilofsky@jala.university	Presenter
Israel Zurita Sanchez	11/10/22, 4:58:59 PM	11/10/22, 6:10:31 PM	1h 11m 32s	Israel.Zurita@jala.university	Presenter
Andre Arroyo Hinojosa	11/10/22, 4:58:59 PM	11/10/22, 6:10:38 PM	1h 11m 39s	Andre.Arroyo@jala.university	Presenter
Diego Alarcon Inturias	11/10/22, 4:59:15 PM	11/10/22, 6:10:35 PM	1h 11m 19s	Diego.Alarcon@jala.university	Presenter
Diego Quisbert Gutierrez	11/10/22, 4:59:23 PM	11/10/22, 6:10:32 PM	1h 11m 8s	Diego.Quisbert@jala.university	Presenter
Jose Mendoza Antonio	11/10/22, 4:59:24 PM	11/10/22, 6:10:44 PM	1h 11m 20s	Jose.Mendoza@jala.university	Presenter
Maria Marquina Guevara	11/10/22, 4:59:29 PM	11/10/22, 6:10:37 PM	1h 11m 8s	Maria.Marquina@jala.university	Organizer
Nelson Delgado Colque	11/10/22, 4:59:58 PM	11/10/22, 6:10:36 PM	1h 10m 38s	Nelson.Delgado@jala.university	Presenter
Alejandra Maldonado	11/10/22, 5:00:00 PM	11/10/22, 6:10:51 PM	1h 10m 50s	Alejandra.Maldonado@jala.university	Presenter
Miguel Paricahua Lopez	11/10/22, 5:00:25 PM	11/10/22, 6:10:37 PM	1h 10m 12s	Miguel.Paricahua@jala.university	Presenter
Miguel Gemio Quispe	11/10/22, 5:00:29 PM	11/10/22, 6:26:01 PM	1h 25m 32s	Miguel.Gemio@jala.university	Presenter
Brayan Vasquez Rojas	11/10/22, 5:00:37 PM	11/10/22, 6:10:45 PM	1h 10m 8s	Brayan.Vasquez@jala.university	Presenter
Dayana Hernandez Aquize	11/10/22, 5:01:44 PM	11/10/22, 6:10:42 PM	1h 8m 57s	Dayana.Hernandez@jala.university	Presenter
Alex Perez Castillo	11/10/22, 5:01:58 PM	11/10/22, 6:10:39 PM	1h 8m 41s	Alex.Perez@jala.university	Presenter
